<?xml version="1.0" encoding="UTF-8" standalone="no"?>
<!-- Created with Inkscape (http://www.inkscape.org/) -->

<svg
   xmlns:dc="http://purl.org/dc/elements/1.1/"
   xmlns:cc="http://creativecommons.org/ns#"
   xmlns:rdf="http://www.w3.org/1999/02/22-rdf-syntax-ns#"
   xmlns:svg="http://www.w3.org/2000/svg"
   xmlns="http://www.w3.org/2000/svg"
   xmlns:sodipodi="http://sodipodi.sourceforge.net/DTD/sodipodi-0.dtd"
   xmlns:inkscape="http://www.inkscape.org/namespaces/inkscape"
   width="744.09448"
   height="1052.3622"
   id="svg2"
   version="1.1"
   inkscape:version="0.48.2 r9819"
   sodipodi:docname="logo_v2_glossy.svg"
   inkscape:export-filename="/home/vinz/projects/libregraphicsmag/livedisc/logo_v2_glossy.png"
   inkscape:export-xdpi="89.969025"
   inkscape:export-ydpi="89.969025">
  <defs
     id="defs4" />
  <sodipodi:namedview
     id="base"
     pagecolor="#ffffff"
     bordercolor="#666666"
     borderopacity="1.0"
     inkscape:pageopacity="1"
     inkscape:pageshadow="2"
     inkscape:zoom="0.8381145"
     inkscape:cx="237.2208"
     inkscape:cy="526.18109"
     inkscape:document-units="px"
     inkscape:current-layer="g3030"
     showgrid="false"
     inkscape:window-width="1920"
     inkscape:window-height="1033"
     inkscape:window-x="0"
     inkscape:window-y="25"
     inkscape:window-maximized="1"
     showguides="true"
     inkscape:guide-bbox="true" />
  <metadata
     id="metadata7">
    <rdf:RDF>
      <cc:Work
         rdf:about="">
        <dc:format>image/svg+xml</dc:format>
        <dc:type
           rdf:resource="http://purl.org/dc/dcmitype/StillImage" />
        <dc:title></dc:title>
      </cc:Work>
    </rdf:RDF>
  </metadata>
  <g
     inkscape:label="Ebene 1"
     inkscape:groupmode="layer"
     id="layer1">
    <g
       id="g3030"
       transform="translate(-198.05353,-563.14015)">
      <g
         id="g4108"
         transform="translate(0,20.861732)">
        <g
           transform="translate(23.079966,3.7987386e-5)"
           id="g4095">
          <path
             d="m 298.97197,695.25428 c 0,33.45634 16.83755,56.8539 50.94984,56.8539 15.74415,0 28.42694,-5.68538 38.48571,-14.43213 l 12.02677,-58.60325 -42.20308,0 -1.74934,7.87207 33.23766,0 -9.1841,46.13913 c -6.56006,6.12272 -16.61883,10.93344 -29.52028,10.93344 -30.83225,0 -42.64042,-22.52289 -42.64042,-50.07516 0,-36.51764 23.61629,-83.09416 65.16329,-83.09416 13.12014,0 21.86689,7.43475 27.55228,17.27484 l 6.9974,-5.02938 c -6.77873,-10.93343 -17.49351,-20.33619 -33.89366,-20.33619 -48.10709,0 -75.22207,48.98186 -75.22207,92.49689"
             style="font-size:40px;font-style:italic;font-variant:normal;font-weight:300;font-stretch:normal;text-align:start;line-height:125%;letter-spacing:0px;word-spacing:0px;writing-mode:lr-tb;text-anchor:start;fill:#000000;fill-opacity:1;stroke:none;font-family:Source Sans Pro;-inkscape-font-specification:Source Sans Pro Light Italic"
             id="path3004"
             inkscape:connector-curvature="0" />
          <path
             d="m 399.20373,726.67552 62.30864,0 1.48354,-6.86136 -54.33462,0 22.80941,-115.34517 -7.97402,0 -24.29295,122.20653"
             style="font-size:40px;font-style:italic;font-variant:normal;font-weight:300;font-stretch:normal;text-align:start;line-height:125%;letter-spacing:0px;word-spacing:0px;writing-mode:lr-tb;text-anchor:start;fill:#000000;fill-opacity:1;stroke:none;font-family:Source Sans Pro;-inkscape-font-specification:Source Sans Pro Light Italic"
             id="path3006"
             inkscape:connector-curvature="0" />
          <path
             d="m 498.67498,728.90083 c 36.34667,0 58.04347,-41.91002 58.04347,-75.84593 0,-29.85618 -13.16645,-50.81121 -40.05555,-50.81121 -36.16122,0 -58.04347,41.91002 -58.04347,75.84593 0,29.85622 13.3519,50.81121 40.05555,50.81121 m 17.43159,-119.79578 c 22.80941,0 32.63786,18.35885 32.63786,44.87706 0,28.74357 -18.1734,68.05736 -49.51312,68.05736 -22.80941,0 -32.45242,-18.3588 -32.45242,-44.87706 0,-28.74352 17.98796,-68.05736 49.32768,-68.05736"
             style="font-size:40px;font-style:italic;font-variant:normal;font-weight:300;font-stretch:normal;text-align:start;line-height:125%;letter-spacing:0px;word-spacing:0px;writing-mode:lr-tb;text-anchor:start;fill:#000000;fill-opacity:1;stroke:none;font-family:Source Sans Pro;-inkscape-font-specification:Source Sans Pro Light Italic"
             id="path3008"
             inkscape:connector-curvature="0" />
          <path
             d="m 544.72724,708.13129 c 8.7158,13.53729 22.06765,20.76954 39.12835,20.76954 22.99485,0 40.24099,-14.4645 40.24099,-35.97582 0,-13.53729 -7.60313,-21.8822 -19.10056,-28.74357 l -15.39172,-8.90123 c -8.71579,-5.00695 -16.13349,-11.12655 -16.13349,-22.43853 0,-11.49743 10.01389,-23.73663 25.96194,-23.73663 12.79552,0 22.43853,6.49049 28.55812,14.46451 l 5.56328,-4.8215 c -6.67593,-9.08668 -18.3588,-16.50437 -33.00875,-16.50437 -20.76955,0 -35.23405,14.83543 -35.23405,31.5252 0,13.35185 9.08668,21.8822 19.10056,27.81636 l 15.76261,9.45756 c 9.45756,5.37783 15.7626,12.42464 15.7626,22.80941 0,17.0607 -13.53729,28.18725 -31.15432,28.18725 -15.20628,0 -26.14738,-6.67593 -33.93596,-18.17336 l -6.1196,4.26518"
             style="font-size:40px;font-style:italic;font-variant:normal;font-weight:300;font-stretch:normal;text-align:start;line-height:125%;letter-spacing:0px;word-spacing:0px;writing-mode:lr-tb;text-anchor:start;fill:#000000;fill-opacity:1;stroke:none;font-family:Source Sans Pro;-inkscape-font-specification:Source Sans Pro Light Italic"
             id="path3010"
             inkscape:connector-curvature="0" />
          <path
             d="m 626.18868,708.13129 c 8.7158,13.53729 22.06769,20.76954 39.12835,20.76954 22.99485,0 40.24099,-14.4645 40.24099,-35.97582 0,-13.53729 -7.60313,-21.8822 -19.10056,-28.74357 l -15.39172,-8.90123 c -8.71575,-5.00695 -16.13349,-11.12655 -16.13349,-22.43853 0,-11.49743 10.01394,-23.73663 25.96194,-23.73663 12.79552,0 22.43857,6.49049 28.55817,14.46451 l 5.56323,-4.8215 c -6.67588,-9.08668 -18.3588,-16.50437 -33.00875,-16.50437 -20.7695,0 -35.23405,14.83543 -35.23405,31.5252 0,13.35185 9.08672,21.8822 19.10056,27.81636 l 15.76265,9.45756 c 9.45752,5.37783 15.76256,12.42464 15.76256,22.80941 0,17.0607 -13.5373,28.18725 -31.15432,28.18725 -15.20623,0 -26.14738,-6.67593 -33.93596,-18.17336 l -6.1196,4.26518"
             style="font-size:40px;font-style:italic;font-variant:normal;font-weight:300;font-stretch:normal;text-align:start;line-height:125%;letter-spacing:0px;word-spacing:0px;writing-mode:lr-tb;text-anchor:start;fill:#000000;fill-opacity:1;stroke:none;font-family:Source Sans Pro;-inkscape-font-specification:Source Sans Pro Light Italic"
             id="path3012"
             inkscape:connector-curvature="0" />
          <path
             d="m 726.45601,726.67552 7.97397,0 10.01394,-49.69855 50.62572,-72.50798 -8.53035,0 -26.7037,38.57202 c -5.93411,8.71579 -11.68287,17.61703 -17.61703,26.33282 l -0.74176,0 c -2.41071,-9.08668 -4.45062,-17.43159 -6.86133,-26.33282 l -10.19933,-38.57202 -8.15951,0 20.21322,72.50798 -10.01384,49.69855"
             style="font-size:40px;font-style:italic;font-variant:normal;font-weight:300;font-stretch:normal;text-align:start;line-height:125%;letter-spacing:0px;word-spacing:0px;writing-mode:lr-tb;text-anchor:start;fill:#000000;fill-opacity:1;stroke:none;font-family:Source Sans Pro;-inkscape-font-specification:Source Sans Pro Light Italic"
             id="path3014"
             inkscape:connector-curvature="0" />
          <rect
             transform="matrix(1,0,-0.19977473,0.97984185,0,0)"
             y="747.35382"
             x="547.17664"
             height="5.9361572"
             width="335.83847"
             id="rect2993"
             style="fill:#000000;fill-opacity:1;stroke:none" />
          <flowRoot
             transform="matrix(0.65691749,0,0,0.65691749,190.92917,406.81751)"
             style="font-size:40px;font-style:normal;font-weight:normal;line-height:125%;letter-spacing:0px;word-spacing:0px;fill:#000000;fill-opacity:1;stroke:none;font-family:Sans"
             id="flowRoot3022"
             xml:space="preserve"><flowRegion
               id="flowRegion3024"><rect
                 y="499.43756"
                 x="312.99213"
                 height="70.866119"
                 width="683.35211"
                 id="rect3026" /></flowRegion><flowPara
               style="font-size:40px;font-style:italic;font-variant:normal;font-weight:300;font-stretch:normal;text-align:start;line-height:125%;writing-mode:lr-tb;text-anchor:start;font-family:Source Sans Pro;-inkscape-font-specification:Source Sans Pro Light Italic"
               id="flowPara3028">a libre graphics and design pack</flowPara></flowRoot>        </g>
        <g
           transform="translate(23.079966,35.776527)"
           id="g4082">
          <path
             inkscape:connector-curvature="0"
             id="path2996"
             style="font-size:40px;font-style:italic;font-variant:normal;font-weight:300;font-stretch:normal;text-align:start;line-height:125%;letter-spacing:0px;word-spacing:0px;writing-mode:lr-tb;text-anchor:start;fill:none;stroke:#000000;font-family:Source Sans Pro;-inkscape-font-specification:Source Sans Pro Light Italic"
             d="m 298.97197,915.25428 c 0,33.45634 16.83755,56.8539 50.94984,56.8539 15.74415,0 28.42694,-5.68538 38.48571,-14.43213 l 12.02677,-58.60325 -42.20308,0 -1.74934,7.87207 33.23766,0 -9.1841,46.13913 c -6.56006,6.12272 -16.61883,10.93344 -29.52028,10.93344 -30.83225,0 -42.64042,-22.52289 -42.64042,-50.07516 0,-36.51764 23.61629,-83.09416 65.16329,-83.09416 13.12014,0 21.86689,7.43475 27.55228,17.27484 l 6.9974,-5.02938 c -6.77873,-10.93343 -17.49351,-20.33619 -33.89366,-20.33619 -48.10709,0 -75.22207,48.98186 -75.22207,92.49689" />
          <path
             inkscape:connector-curvature="0"
             id="path2998"
             style="font-size:40px;font-style:italic;font-variant:normal;font-weight:300;font-stretch:normal;text-align:start;line-height:125%;letter-spacing:0px;word-spacing:0px;writing-mode:lr-tb;text-anchor:start;fill:none;stroke:#000000;font-family:Source Sans Pro;-inkscape-font-specification:Source Sans Pro Light Italic"
             d="m 399.20373,946.67552 62.30864,0 1.48354,-6.86136 -54.33462,0 22.80941,-115.34517 -7.97402,0 -24.29295,122.20653" />
          <path
             inkscape:connector-curvature="0"
             id="path3000"
             style="font-size:40px;font-style:italic;font-variant:normal;font-weight:300;font-stretch:normal;text-align:start;line-height:125%;letter-spacing:0px;word-spacing:0px;writing-mode:lr-tb;text-anchor:start;fill:none;stroke:#000000;font-family:Source Sans Pro;-inkscape-font-specification:Source Sans Pro Light Italic"
             d="m 498.67498,948.90083 c 36.34667,0 58.04347,-41.91002 58.04347,-75.84593 0,-29.85618 -13.16645,-50.81121 -40.05555,-50.81121 -36.16122,0 -58.04347,41.91002 -58.04347,75.84593 0,29.85622 13.3519,50.81121 40.05555,50.81121 m 17.43159,-119.79578 c 22.80941,0 32.63786,18.35885 32.63786,44.87706 0,28.74357 -18.1734,68.05736 -49.51312,68.05736 -22.80941,0 -32.45242,-18.3588 -32.45242,-44.87706 0,-28.74352 17.98796,-68.05736 49.32768,-68.05736" />
          <path
             inkscape:connector-curvature="0"
             id="path3002"
             style="font-size:40px;font-style:italic;font-variant:normal;font-weight:300;font-stretch:normal;text-align:start;line-height:125%;letter-spacing:0px;word-spacing:0px;writing-mode:lr-tb;text-anchor:start;fill:none;stroke:#000000;font-family:Source Sans Pro;-inkscape-font-specification:Source Sans Pro Light Italic"
             d="m 544.72724,928.13129 c 8.7158,13.53729 22.06765,20.76954 39.12835,20.76954 22.99485,0 40.24099,-14.4645 40.24099,-35.97582 0,-13.53729 -7.60313,-21.8822 -19.10056,-28.74357 l -15.39172,-8.90123 c -8.71579,-5.00695 -16.13349,-11.12655 -16.13349,-22.43853 0,-11.49743 10.01389,-23.73663 25.96194,-23.73663 12.79552,0 22.43853,6.49049 28.55812,14.46451 l 5.56328,-4.8215 c -6.67593,-9.08668 -18.3588,-16.50437 -33.00875,-16.50437 -20.76955,0 -35.23405,14.83543 -35.23405,31.5252 0,13.35185 9.08668,21.8822 19.10056,27.81636 l 15.76261,9.45756 c 9.45756,5.37783 15.7626,12.42464 15.7626,22.80941 0,17.0607 -13.53729,28.18725 -31.15432,28.18725 -15.20628,0 -26.14738,-6.67593 -33.93596,-18.17336 l -6.1196,4.26518" />
          <path
             inkscape:connector-curvature="0"
             id="path3005"
             style="font-size:40px;font-style:italic;font-variant:normal;font-weight:300;font-stretch:normal;text-align:start;line-height:125%;letter-spacing:0px;word-spacing:0px;writing-mode:lr-tb;text-anchor:start;fill:none;stroke:#000000;font-family:Source Sans Pro;-inkscape-font-specification:Source Sans Pro Light Italic"
             d="m 626.18868,928.13129 c 8.7158,13.53729 22.06769,20.76954 39.12835,20.76954 22.99485,0 40.24099,-14.4645 40.24099,-35.97582 0,-13.53729 -7.60313,-21.8822 -19.10056,-28.74357 l -15.39172,-8.90123 c -8.71575,-5.00695 -16.13349,-11.12655 -16.13349,-22.43853 0,-11.49743 10.01394,-23.73663 25.96194,-23.73663 12.79552,0 22.43857,6.49049 28.55817,14.46451 l 5.56323,-4.8215 c -6.67588,-9.08668 -18.3588,-16.50437 -33.00875,-16.50437 -20.7695,0 -35.23405,14.83543 -35.23405,31.5252 0,13.35185 9.08672,21.8822 19.10056,27.81636 l 15.76265,9.45756 c 9.45752,5.37783 15.76256,12.42464 15.76256,22.80941 0,17.0607 -13.5373,28.18725 -31.15432,28.18725 -15.20623,0 -26.14738,-6.67593 -33.93596,-18.17336 l -6.1196,4.26518" />
          <path
             inkscape:connector-curvature="0"
             id="path3007"
             style="font-size:40px;font-style:italic;font-variant:normal;font-weight:300;font-stretch:normal;text-align:start;line-height:125%;letter-spacing:0px;word-spacing:0px;writing-mode:lr-tb;text-anchor:start;fill:none;stroke:#000000;font-family:Source Sans Pro;-inkscape-font-specification:Source Sans Pro Light Italic"
             d="m 726.45601,946.67552 7.97397,0 10.01394,-49.69855 50.62572,-72.50798 -8.53035,0 -26.7037,38.57202 c -5.93411,8.71579 -11.68287,17.61703 -17.61703,26.33282 l -0.74176,0 c -2.41071,-9.08668 -4.45062,-17.43159 -6.86133,-26.33282 l -10.19933,-38.57202 -8.15951,0 20.21322,72.50798 -10.01384,49.69855" />
          <rect
             style="fill:none;stroke:#000000;stroke-width:1"
             id="rect3009"
             width="335.83847"
             height="5.9361572"
             x="592.03131"
             y="971.8797"
             transform="matrix(1,0,-0.19977473,0.97984185,0,0)" />
          <flowRoot
             xml:space="preserve"
             id="flowRoot3011"
             style="font-size:40px;font-style:normal;font-weight:normal;line-height:125%;letter-spacing:0px;word-spacing:0px;fill:#000000;fill-opacity:1;stroke:none;font-family:Sans"
             transform="matrix(0.65691749,0,0,0.65691749,190.92917,626.81751)"><flowRegion
               id="flowRegion3013"><rect
                 id="rect3015"
                 width="683.35211"
                 height="70.866119"
                 x="312.99213"
                 y="499.43756" /></flowRegion><flowPara
               id="flowPara3017"
               style="font-size:40px;font-style:italic;font-variant:normal;font-weight:300;font-stretch:normal;text-align:start;line-height:125%;writing-mode:lr-tb;text-anchor:start;font-family:Source Sans Pro;-inkscape-font-specification:Source Sans Pro Light Italic">a libre graphics and design pack</flowPara></flowRoot>        </g>
        <g
           transform="translate(23.079966,58.887878)"
           id="g4069">
          <path
             d="m 298.97197,1147.9194 c 0,33.4563 16.83755,56.8539 50.94984,56.8539 15.74415,0 28.42694,-5.6854 38.48571,-14.4321 l 12.02677,-58.6033 -42.20308,0 -1.74934,7.8721 33.23766,0 -9.1841,46.1391 c -6.56006,6.1227 -16.61883,10.9334 -29.52028,10.9334 -30.83225,0 -42.64042,-22.5228 -42.64042,-50.0751 0,-36.5177 23.61629,-83.0942 65.16329,-83.0942 13.12014,0 21.86689,7.4348 27.55228,17.2749 l 6.9974,-5.0294 c -6.77873,-10.9334 -17.49351,-20.3362 -33.89366,-20.3362 -48.10709,0 -75.22207,48.9819 -75.22207,92.4969"
             style="font-size:40px;font-style:italic;font-variant:normal;font-weight:300;font-stretch:normal;text-align:start;line-height:125%;letter-spacing:0px;word-spacing:0px;writing-mode:lr-tb;text-anchor:start;fill:#90acac;stroke:#90acac;font-family:Source Sans Pro;-inkscape-font-specification:Source Sans Pro Light Italic"
             id="path4012"
             inkscape:connector-curvature="0" />
          <path
             d="m 399.20373,1179.3406 62.30864,0 1.48354,-6.8613 -54.33462,0 22.80941,-115.3452 -7.97402,0 -24.29295,122.2065"
             style="font-size:40px;font-style:italic;font-variant:normal;font-weight:300;font-stretch:normal;text-align:start;line-height:125%;letter-spacing:0px;word-spacing:0px;writing-mode:lr-tb;text-anchor:start;fill:#90acac;stroke:#90acac;font-family:Source Sans Pro;-inkscape-font-specification:Source Sans Pro Light Italic"
             id="path4014"
             inkscape:connector-curvature="0" />
          <path
             d="m 498.67498,1181.5659 c 36.34667,0 58.04347,-41.91 58.04347,-75.8459 0,-29.8562 -13.16645,-50.8112 -40.05555,-50.8112 -36.16122,0 -58.04347,41.91 -58.04347,75.8459 0,29.8562 13.3519,50.8112 40.05555,50.8112 m 17.43159,-119.7957 c 22.80941,0 32.63786,18.3588 32.63786,44.877 0,28.7436 -18.1734,68.0574 -49.51312,68.0574 -22.80941,0 -32.45242,-18.3588 -32.45242,-44.8771 0,-28.7435 17.98796,-68.0573 49.32768,-68.0573"
             style="font-size:40px;font-style:italic;font-variant:normal;font-weight:300;font-stretch:normal;text-align:start;line-height:125%;letter-spacing:0px;word-spacing:0px;writing-mode:lr-tb;text-anchor:start;fill:#90acac;stroke:#90acac;font-family:Source Sans Pro;-inkscape-font-specification:Source Sans Pro Light Italic"
             id="path4016"
             inkscape:connector-curvature="0" />
          <path
             d="m 544.72724,1160.7964 c 8.7158,13.5373 22.06765,20.7695 39.12835,20.7695 22.99485,0 40.24099,-14.4645 40.24099,-35.9758 0,-13.5373 -7.60313,-21.8822 -19.10056,-28.7436 l -15.39172,-8.9012 c -8.71579,-5.0069 -16.13349,-11.1265 -16.13349,-22.4385 0,-11.4974 10.01389,-23.7366 25.96194,-23.7366 12.79552,0 22.43853,6.4904 28.55812,14.4645 l 5.56328,-4.8215 c -6.67593,-9.0867 -18.3588,-16.5044 -33.00875,-16.5044 -20.76955,0 -35.23405,14.8354 -35.23405,31.5252 0,13.3518 9.08668,21.8822 19.10056,27.8164 l 15.76261,9.4575 c 9.45756,5.3778 15.7626,12.4247 15.7626,22.8094 0,17.0607 -13.53729,28.1873 -31.15432,28.1873 -15.20628,0 -26.14738,-6.676 -33.93596,-18.1734 l -6.1196,4.2652"
             style="font-size:40px;font-style:italic;font-variant:normal;font-weight:300;font-stretch:normal;text-align:start;line-height:125%;letter-spacing:0px;word-spacing:0px;writing-mode:lr-tb;text-anchor:start;fill:#90acac;stroke:#90acac;font-family:Source Sans Pro;-inkscape-font-specification:Source Sans Pro Light Italic"
             id="path4018"
             inkscape:connector-curvature="0" />
          <path
             d="m 626.18868,1160.7964 c 8.7158,13.5373 22.06769,20.7695 39.12835,20.7695 22.99485,0 40.24099,-14.4645 40.24099,-35.9758 0,-13.5373 -7.60313,-21.8822 -19.10056,-28.7436 l -15.39172,-8.9012 c -8.71575,-5.0069 -16.13349,-11.1265 -16.13349,-22.4385 0,-11.4974 10.01394,-23.7366 25.96194,-23.7366 12.79552,0 22.43857,6.4904 28.55817,14.4645 l 5.56323,-4.8215 c -6.67588,-9.0867 -18.3588,-16.5044 -33.00875,-16.5044 -20.7695,0 -35.23405,14.8354 -35.23405,31.5252 0,13.3518 9.08672,21.8822 19.10056,27.8164 l 15.76265,9.4575 c 9.45752,5.3778 15.76256,12.4247 15.76256,22.8094 0,17.0607 -13.5373,28.1873 -31.15432,28.1873 -15.20623,0 -26.14738,-6.676 -33.93596,-18.1734 l -6.1196,4.2652"
             style="font-size:40px;font-style:italic;font-variant:normal;font-weight:300;font-stretch:normal;text-align:start;line-height:125%;letter-spacing:0px;word-spacing:0px;writing-mode:lr-tb;text-anchor:start;fill:#90acac;stroke:#90acac;font-family:Source Sans Pro;-inkscape-font-specification:Source Sans Pro Light Italic"
             id="path4020"
             inkscape:connector-curvature="0" />
          <path
             d="m 726.45601,1179.3406 7.97397,0 10.01394,-49.6985 50.62572,-72.508 -8.53035,0 -26.7037,38.572 c -5.93411,8.7158 -11.68287,17.617 -17.61703,26.3328 l -0.74176,0 c -2.41071,-9.0866 -4.45062,-17.4316 -6.86133,-26.3328 l -10.19933,-38.572 -8.15951,0 20.21322,72.508 -10.01384,49.6985"
             style="font-size:40px;font-style:italic;font-variant:normal;font-weight:300;font-stretch:normal;text-align:start;line-height:125%;letter-spacing:0px;word-spacing:0px;writing-mode:lr-tb;text-anchor:start;fill:#90acac;stroke:#90acac;font-family:Source Sans Pro;-inkscape-font-specification:Source Sans Pro Light Italic"
             id="path4022"
             inkscape:connector-curvature="0" />
          <rect
             transform="matrix(1,0,-0.19977473,0.97984185,0,0)"
             y="1209.3314"
             x="639.46814"
             height="5.9361572"
             width="335.83847"
             id="rect4024"
             style="fill:#90acac;stroke:#90acac;stroke-width:1" />
          <flowRoot
             transform="matrix(0.65691749,0,0,0.65691749,190.92917,859.48262)"
             style="font-size:40px;font-style:normal;font-weight:normal;line-height:125%;letter-spacing:0px;word-spacing:0px;fill:#90acac;fill-opacity:1;stroke:#90acac;font-family:Sans"
             id="flowRoot4026"
             xml:space="preserve"><flowRegion
               id="flowRegion4028"><rect
                 y="499.43756"
                 x="312.99213"
                 height="70.866119"
                 width="683.35211"
                 id="rect4030"
                 style="fill:#90acac;stroke:#90acac" /></flowRegion><flowPara
               style="font-size:40px;font-style:italic;font-variant:normal;font-weight:300;font-stretch:normal;text-align:start;line-height:125%;writing-mode:lr-tb;text-anchor:start;fill:#90acac;stroke:#90acac;font-family:Source Sans Pro;-inkscape-font-specification:Source Sans Pro Light Italic"
               id="flowPara4032">a libre graphics and design pack</flowPara></flowRoot>        </g>
        <g
           transform="translate(23.079966,2.1085973e-6)"
           id="g4056">
          <path
             inkscape:connector-curvature="0"
             id="path4034"
             style="font-size:40px;font-style:italic;font-variant:normal;font-weight:300;font-stretch:normal;text-align:start;line-height:125%;letter-spacing:0px;word-spacing:0px;writing-mode:lr-tb;text-anchor:start;fill:#eccc84;stroke:#eccc84;font-family:Source Sans Pro;-inkscape-font-specification:Source Sans Pro Light Italic"
             d="m 298.97197,1462.9122 c 0,33.4563 16.83755,56.8539 50.94984,56.8539 15.74415,0 28.42694,-5.6854 38.48571,-14.4321 l 12.02677,-58.6033 -42.20308,0 -1.74934,7.8721 33.23766,0 -9.1841,46.1391 c -6.56006,6.1227 -16.61883,10.9334 -29.52028,10.9334 -30.83225,0 -42.64042,-22.5228 -42.64042,-50.0751 0,-36.5177 23.61629,-83.0942 65.16329,-83.0942 13.12014,0 21.86689,7.4348 27.55228,17.2749 l 6.9974,-5.0294 c -6.77873,-10.9334 -17.49351,-20.3362 -33.89366,-20.3362 -48.10709,0 -75.22207,48.9819 -75.22207,92.4969" />
          <path
             inkscape:connector-curvature="0"
             id="path4036"
             style="font-size:40px;font-style:italic;font-variant:normal;font-weight:300;font-stretch:normal;text-align:start;line-height:125%;letter-spacing:0px;word-spacing:0px;writing-mode:lr-tb;text-anchor:start;fill:#eccc84;stroke:#eccc84;font-family:Source Sans Pro;-inkscape-font-specification:Source Sans Pro Light Italic"
             d="m 399.20373,1494.3334 62.30864,0 1.48354,-6.8613 -54.33462,0 22.80941,-115.3452 -7.97402,0 -24.29295,122.2065" />
          <path
             inkscape:connector-curvature="0"
             id="path4038"
             style="font-size:40px;font-style:italic;font-variant:normal;font-weight:300;font-stretch:normal;text-align:start;line-height:125%;letter-spacing:0px;word-spacing:0px;writing-mode:lr-tb;text-anchor:start;fill:#eccc84;stroke:#eccc84;font-family:Source Sans Pro;-inkscape-font-specification:Source Sans Pro Light Italic"
             d="m 498.67498,1496.5587 c 36.34667,0 58.04347,-41.91 58.04347,-75.8459 0,-29.8562 -13.16645,-50.8112 -40.05555,-50.8112 -36.16122,0 -58.04347,41.91 -58.04347,75.8459 0,29.8562 13.3519,50.8112 40.05555,50.8112 m 17.43159,-119.7957 c 22.80941,0 32.63786,18.3588 32.63786,44.877 0,28.7436 -18.1734,68.0574 -49.51312,68.0574 -22.80941,0 -32.45242,-18.3588 -32.45242,-44.8771 0,-28.7435 17.98796,-68.0573 49.32768,-68.0573" />
          <path
             inkscape:connector-curvature="0"
             id="path4040"
             style="font-size:40px;font-style:italic;font-variant:normal;font-weight:300;font-stretch:normal;text-align:start;line-height:125%;letter-spacing:0px;word-spacing:0px;writing-mode:lr-tb;text-anchor:start;fill:#eccc84;stroke:#eccc84;font-family:Source Sans Pro;-inkscape-font-specification:Source Sans Pro Light Italic"
             d="m 544.72724,1475.7892 c 8.7158,13.5373 22.06765,20.7695 39.12835,20.7695 22.99485,0 40.24099,-14.4645 40.24099,-35.9758 0,-13.5373 -7.60313,-21.8822 -19.10056,-28.7436 l -15.39172,-8.9012 c -8.71579,-5.0069 -16.13349,-11.1265 -16.13349,-22.4385 0,-11.4974 10.01389,-23.7366 25.96194,-23.7366 12.79552,0 22.43853,6.4904 28.55812,14.4645 l 5.56328,-4.8215 c -6.67593,-9.0867 -18.3588,-16.5044 -33.00875,-16.5044 -20.76955,0 -35.23405,14.8354 -35.23405,31.5252 0,13.3518 9.08668,21.8822 19.10056,27.8164 l 15.76261,9.4575 c 9.45756,5.3778 15.7626,12.4247 15.7626,22.8094 0,17.0607 -13.53729,28.1873 -31.15432,28.1873 -15.20628,0 -26.14738,-6.676 -33.93596,-18.1734 l -6.1196,4.2652" />
          <path
             inkscape:connector-curvature="0"
             id="path4042"
             style="font-size:40px;font-style:italic;font-variant:normal;font-weight:300;font-stretch:normal;text-align:start;line-height:125%;letter-spacing:0px;word-spacing:0px;writing-mode:lr-tb;text-anchor:start;fill:#eccc84;stroke:#eccc84;font-family:Source Sans Pro;-inkscape-font-specification:Source Sans Pro Light Italic"
             d="m 626.18868,1475.7892 c 8.7158,13.5373 22.06769,20.7695 39.12835,20.7695 22.99485,0 40.24099,-14.4645 40.24099,-35.9758 0,-13.5373 -7.60313,-21.8822 -19.10056,-28.7436 l -15.39172,-8.9012 c -8.71575,-5.0069 -16.13349,-11.1265 -16.13349,-22.4385 0,-11.4974 10.01394,-23.7366 25.96194,-23.7366 12.79552,0 22.43857,6.4904 28.55817,14.4645 l 5.56323,-4.8215 c -6.67588,-9.0867 -18.3588,-16.5044 -33.00875,-16.5044 -20.7695,0 -35.23405,14.8354 -35.23405,31.5252 0,13.3518 9.08672,21.8822 19.10056,27.8164 l 15.76265,9.4575 c 9.45752,5.3778 15.76256,12.4247 15.76256,22.8094 0,17.0607 -13.5373,28.1873 -31.15432,28.1873 -15.20623,0 -26.14738,-6.676 -33.93596,-18.1734 l -6.1196,4.2652" />
          <path
             inkscape:connector-curvature="0"
             id="path4044"
             style="font-size:40px;font-style:italic;font-variant:normal;font-weight:300;font-stretch:normal;text-align:start;line-height:125%;letter-spacing:0px;word-spacing:0px;writing-mode:lr-tb;text-anchor:start;fill:#eccc84;stroke:#eccc84;font-family:Source Sans Pro;-inkscape-font-specification:Source Sans Pro Light Italic"
             d="m 726.45601,1494.3334 7.97397,0 10.01394,-49.6985 50.62572,-72.508 -8.53035,0 -26.7037,38.572 c -5.93411,8.7158 -11.68287,17.617 -17.61703,26.3328 l -0.74176,0 c -2.41071,-9.0866 -4.45062,-17.4316 -6.86133,-26.3328 l -10.19933,-38.572 -8.15951,0 20.21322,72.508 -10.01384,49.6985" />
          <rect
             style="fill:#eccc84;stroke:#eccc84;stroke-width:1"
             id="rect4046"
             width="335.83847"
             height="5.9361572"
             x="703.69031"
             y="1530.8044"
             transform="matrix(1,0,-0.19977473,0.97984185,0,0)" />
          <flowRoot
             xml:space="preserve"
             id="flowRoot4048"
             style="font-size:40px;font-style:normal;font-weight:normal;line-height:125%;letter-spacing:0px;word-spacing:0px;fill:#eccc84;fill-opacity:1;stroke:#eccc84;font-family:Sans"
             transform="matrix(0.65691749,0,0,0.65691749,190.92917,1174.4754)"><flowRegion
               id="flowRegion4050"><rect
                 style="fill:#eccc84;stroke:#eccc84"
                 id="rect4052"
                 width="683.35211"
                 height="70.866119"
                 x="312.99213"
                 y="499.43756" /></flowRegion><flowPara
               id="flowPara4054"
               style="font-size:40px;font-style:italic;font-variant:normal;font-weight:300;font-stretch:normal;text-align:start;line-height:125%;writing-mode:lr-tb;text-anchor:start;fill:#eccc84;stroke:#eccc84;font-family:Source Sans Pro;-inkscape-font-specification:Source Sans Pro Light Italic">a libre graphics and design pack</flowPara></flowRoot>        </g>
      </g>
    </g>
  </g>
</svg>
